{
  "colors": [
    {
      "color": {
        "color-space": "srgb",
        "components": {
          "alpha": "1.000",
          "blue": "0xE4",
          "green": "0xE4",
          "red": "0xFF"
        }
      },
      "idiom": "universal"
    },
    {
      "appearances": [
        {
          "appearance": "luminosity",
          "value": "dark"
        }
      ],
      "color": {
        "color-space": "srgb",
        "components": {
          "alpha": "1.000",
          "blue": "0x58",
          "green": "0x58",
          "red": "0x9E"
        }
      },
      "idiom": "universal"
    }
  ],
  "info": {
    "author": "xcode",
    "version": 1
  }
}
